#,Item,Source,"Priority (H, M, L)"
BR001,Create a single place for controlling orders flow and tracking its states to decrease reworking - a waste of time,Procurement SME,H
BR002,Have transparent 2 stages of order approval according to the 4 eyes principle based on cost allocation,Procurement SME,H
BR003,"Integrate communication with vendors: quote requests, issuing & sending purchase orders confirmation without additional tools involved",Procurement SME,M
BR004,Eliminate time waste for processing vendor's response on our Quote Request Document & updating orders with its content,Procurement SME,L
