Step #,Action to be taken
1,"Verify and confirm with stakeholders the whole tree of requirements one by one, from BR to use cases"
2,"Organize a meeting with the development team assigned to this part of the system for raw estimations and suggestions on the granularity of the user stories; the complexity of the implementation process; capacity; the possibility of another teams involvement, both devs and not"
3,"Obtain a description in any form of each part of UI expected to be seen by stakeholders, document it and transform it into wireframes if needed"
4,Verify which parts of current solutions and systems would be involved and how to tackle it with the development team responsible for OrderWeb and possibly PO/Architect/PM to have it organized by milestones and critical points.
5,"Document all additional requirements, milestones, flows, diagrams, sketches, wireframes and other artifacts in a structured and organized manner and obtain stakeholders' sign-off on expectations  "
6,"Deliver documentation and artifacts to the developers' team with any explanation it requires to have a confident estimation of capacity, time-frames and involvements."
